<svg width="850" height="90" viewBox="0 0 850 90" fill="none" xmlns="http://www.w3.org/2000/svg">
<g filter="url(#filter0_f)">
<path fill-rule="evenodd" clip-rule="evenodd" d="M818.722 45L421.861 25L25 45H31.2775L428.139 65L825 45H818.722Z" fill="#031CFF"/>
</g>
<defs>
<filter id="filter0_f" x="0" y="0" width="850" height="90" filterUnits="userSpaceOnUse" color-interpolation-filters="sRGB">
<feFlood flood-opacity="0" result="BackgroundImageFix"/>
<feBlend mode="normal" in="SourceGraphic" in2="BackgroundImageFix" result="shape"/>
<feGaussianBlur stdDeviation="12.5" result="effect1_foregroundBlur"/>
</filter>
</defs>
</svg>
